cl\safe\rowMapper\TecnicoMapper.class
cl\safe\to\AsociacionPerfilMenu.class
cl\safe\to\MenuTo.class
cl\safe\to\Tecnico.class
cl\safe\rowMapper\RevisionEvaluacionMapper.class
cl\safe\to\Empresa.class
cl\safe\rowMapper\SupervisorRowMapper.class
cl\safe\to\Persona.class
cl\safe\restcontroller\AutenticacionController.class
cl\safe\service\AdministrarVisitaMedicaService.class
cl\safe\rowMapper\PersonaIngenieroMapper.class
cl\safe\restcontroller\AdministrarEvaluacionesController.class
cl\safe\rowMapper\UsuarioRowMapper.class
cl\safe\rowMapper\PersonaMapper.class
cl\safe\rowMapper\EmpresaComunaMapper.class
cl\safe\to\Perfil.class
cl\safe\to\Administrador.class
cl\safe\service\GeneralesService.class
cl\safe\test\Test.class
cl\safe\rowMapper\ComunaRowMapper.class
cl\safe\rowMapper\PerfilRowMapper.class
cl\safe\rowMapper\AdministradorPersonaMapper.class
cl\safe\to\InstalacionComuna.class
cl\safe\rowMapper\AsociacionPerfilMenuMapper.class
cl\safe\rowMapper\TrabajadorPersonaMapper.class
cl\safe\dao\impl\MantenedoresDaoImpl.class
cl\safe\to\PersonaIngeniero.class
cl\safe\rowMapper\MenuRowMapper.class
cl\safe\to\RevisionEvaluacion.class
cl\safe\service\AdministrarCapacitacionService.class
cl\safe\to\EvaluacionRevision.class
cl\safe\to\Region.class
cl\safe\rowMapper\AsistenciaCapacitacionMapper.class
cl\safe\to\Evaluacion.class
cl\safe\dao\impl\GeneralesDaoImpl.class
cl\safe\to\Trabajador.class
cl\safe\to\ExamenFichaMedica.class
cl\safe\to\Medico.class
cl\safe\rowMapper\AtencionMedicaMapper.class
cl\safe\to\Menu.class
cl\safe\to\Usuario.class
cl\safe\service\AutenticacionService.class
cl\safe\to\UsuarioAuth.class
cl\safe\rowMapper\ExamenMapper.class
cl\safe\service\MantenedoresService.class
cl\safe\to\TokenTo.class
cl\safe\dao\impl\AdministrarVisitaMedicaDaoImpl.class
cl\safe\to\PersonaTecnico.class
cl\safe\to\Instalacion.class
cl\safe\rowMapper\InstalacionEmpresaMapper.class
cl\safe\to\Supervisor.class
cl\safe\restcontroller\AdministrarVisitaMedicaController.class
cl\safe\to\AtencionMedica.class
cl\safe\dao\AdministrarCapacitacionDao.class
cl\safe\to\Login.class
cl\safe\dao\AutenticarDao.class
cl\safe\service\AdministrarEvaluacionesService.class
cl\safe\rowMapper\RegionRowMapper.class
cl\safe\to\Comuna.class
cl\safe\dao\MantenedoresDao.class
cl\safe\restcontroller\AdministrarCapacitacionController.class
cl\safe\restcontroller\MantenedoresController.class
cl\safe\to\FichaMedica.class
cl\safe\to\Expositor.class
cl\safe\rowMapper\ExpositorPersonaMapper.class
cl\safe\dao\impl\AutenticarDaoImpl.class
cl\safe\to\Error.class
cl\safe\dao\impl\AdministrarEvaluacionesDaoImpl.class
cl\safe\restcontroller\GeneralesControler.class
cl\safe\rowMapper\TrabajadorMapper.class
cl\safe\rowMapper\AgendaMedicaMapper.class
cl\safe\dao\GeneralesDao.class
cl\safe\to\ExamenEmpresa.class
cl\safe\to\AsistenciaCapacitacion.class
cl\safe\to\EmpresaComuna.class
cl\safe\rowMapper\PersonaTecnicaMapper.class
cl\safe\to\RevisionEvaluacionEmpresa.class
cl\safe\dao\PersonaDao.class
cl\safe\to\AgendaMedica.class
cl\safe\rowMapper\CapacitacionMapper.class
cl\safe\dao\AdministrarEvaluacionesDao.class
cl\safe\dao\impl\PersonaDaoImpl.class
cl\safe\dao\AdministrarVisitaMedicaDao.class
cl\safe\rowMapper\FichaMedicaMapper.class
cl\safe\dao\impl\AdministrarCapacitacionDaoImpl.class
cl\safe\rowMapper\EvaluacionMapper.class
cl\safe\to\Capacitacion.class
cl\safe\rowMapper\MedicoMapper.class
